[
  {
    "objectID": "index.html",
    "href": "index.html",
    "title": "",
    "section": "",
    "text": "Jon Doe1, Jane Doe2,\n\nDepartment, Institution, City, Sweden\nDepartment, Institution, City, Sweden\n\n\n\nIntroduction: Tempor duis voluptate elit officia incididunt duis ex amet dolor in ut.\nMethods: Exercitation ad commodo laborum sunt veniam ut aliqua esse non mollit.\nResults: Exercitation culpa mollit ea officia id ea laborum dolore sunt nisi voluptate.\nDiscussion: Elit sit eiusmod excepteur voluptate nisi ea tempor.\n\n\n\nSee very important studies.[1,2]\n\n\n\nQui aute fugiat incididunt consequat elit velit ut ullamco occaecat. Laboris magna deserunt ipsum elit exercitation. Mollit nisi elit culpa velit excepteur enim. Deserunt do ipsum proident consectetur do excepteur.\n\n\n\nSee Figure 1.1 and Table 1.1.\nIt would be nice if there was a was to specify Supplementary Figures/Tables instead of this “hacky” solution. So that I could get Supplementary Figure 1 (with it’s own counter separate from the main text) instead of having to create different chapters like this: Figure 2.1.\nAlso if it was possible to specify capitalization of Figure/figure and Table/table on a per reference basis, e.g. @Fig-main would give Figure 1.1 and @fig-main would give figure 1.1. Or @fig-main would give the default, @^fig-main would give Figure 1.1, and @_fig-main would give figure 1.1.\nIncluded tables cannot be referenced, see ?@tbl-included.\n\n\n\nEu qui dolor consectetur fugiat minim labore magna. Eiusmod elit nostrud anim id exercitation nisi. Sunt veniam in ea cupidatat cillum pariatur officia id nostrud Lorem occaecat officia. Esse laboris velit esse excepteur ea ex pariatur dolor cupidatat officia duis tempor.\n\n\n\n\n\n\n\n\nFigure 1.1: Sample Figure. This is a sample figure.\n\n\n\n\n\nTable 1.1: Inline Table. This is an inline table.\n\n\nColor\nValue\n\n\n\n\nRed\n34\n\n\nGreen\n18\n\n\nBlue\n73\n\n\n\n\n\n\n\nAttempted Included Table. This is an attempt to include a table. It almost works as the heading is placed in the correct place, but it is not recognized as a table and can’t be referenced.\n\n\n\n\n\n\nElement\nValue\n\n\n\n\nFire\n12\n\n\nGrass\n98\n\n\nWater\n55"
  },
  {
    "objectID": "index.html#a-supplementary-section",
    "href": "index.html#a-supplementary-section",
    "title": "",
    "section": "2.1 A Supplementary Section",
    "text": "2.1 A Supplementary Section\nIrure tempor quis aliquip est Lorem excepteur enim tempor nulla et. Enim culpa sint labore anim reprehenderit do. Lorem veniam enim elit cupidatat nostrud tempor tempor ad consectetur consequat eiusmod pariatur nisi esse. Proident exercitation laboris ad nisi voluptate veniam nulla dolore nisi sunt occaecat anim sit ex. Eu exercitation cupidatat pariatur sit laborum anim. Labore in veniam deserunt ex fugiat mollit culpa nostrud. Eiusmod eu ipsum commodo dolor ea laboris aliqua dolor dolor ipsum nostrud aliqua duis veniam.\nNisi cupidatat irure ad officia. Dolor qui amet laborum nulla do officia sit nulla laboris. Amet minim proident et aliquip quis dolore cupidatat."
  },
  {
    "objectID": "index.html#supplementary-figures-and-tables",
    "href": "index.html#supplementary-figures-and-tables",
    "title": "",
    "section": "2.2 Supplementary Figures and Tables",
    "text": "2.2 Supplementary Figures and Tables\n\n\n\nFigure 2.1: Supplementary Sample Figure. This is a supplemtary sample figure.\n\n\n\n\nTable 2.1: Supplementary Inline Table. This is a supplementary inline table.\n\n\nColor\nValue\n\n\n\n\nRed\n34\n\n\nGreen\n18\n\n\nBlue\n73"
  },
  {
    "objectID": "tbl/sample-table-1.html",
    "href": "tbl/sample-table-1.html",
    "title": "",
    "section": "",
    "text": "Element\nValue\n\n\n\n\nFire\n12\n\n\nGrass\n98\n\n\nWater\n55"
  }
]